Narrated: Let’s prepare our document
…
2. WRANGLE

2a. Tidy data

Data 1: TIME SPENT

We will separate course_id variable in the time-spent.

The c() function in R is used to get the output by giving parameters inside the function.

time_spent %>%  
  separate(course_id,
           c("subject", "semester", "section"))

# A tibble: 716 × 8
   student_id subject semester section gender enrollment_reason                 
        <dbl> <chr>   <chr>    <chr>   <chr>  <chr>                             
 1      60186 AnPhA   S116     01      M      Course Unavailable at Local School
 2      66693 AnPhA   S116     01      M      Course Unavailable at Local School
 3      66811 AnPhA   S116     01      F      Course Unavailable at Local School
 4      66862 AnPhA   S116     01      F      Course Unavailable at Local School
 5      67508 AnPhA   S116     01      F      Scheduling Conflict               
 6      70532 AnPhA   S116     01      F      Learning Preference of the Student
 7      77010 AnPhA   S116     01      F      Learning Preference of the Student
 8      85249 AnPhA   S116     01      F      Course Unavailable at Local School
 9      85411 AnPhA   S116     01      F      Scheduling Conflict               
10      85583 AnPhA   S116     01      F      Scheduling Conflict               
# ℹ 706 more rows
# ℹ 2 more variables: enrollment_status <chr>, time_spent <dbl>

time_spent

# A tibble: 716 × 6
   student_id course_id    gender enrollment_reason enrollment_status time_spent
        <dbl> <chr>        <chr>  <chr>             <chr>                  <dbl>
 1      60186 AnPhA-S116-… M      Course Unavailab… Approved/Enrolled      2087.
 2      66693 AnPhA-S116-… M      Course Unavailab… Approved/Enrolled      2309.
 3      66811 AnPhA-S116-… F      Course Unavailab… Approved/Enrolled      5299.
 4      66862 AnPhA-S116-… F      Course Unavailab… Approved/Enrolled      1747.
 5      67508 AnPhA-S116-… F      Scheduling Confl… Approved/Enrolled      2668.
 6      70532 AnPhA-S116-… F      Learning Prefere… Approved/Enrolled      2938.
 7      77010 AnPhA-S116-… F      Learning Prefere… Approved/Enrolled      1533.
 8      85249 AnPhA-S116-… F      Course Unavailab… Approved/Enrolled      1210.
 9      85411 AnPhA-S116-… F      Scheduling Confl… Approved/Enrolled       473.
10      85583 AnPhA-S116-… F      Scheduling Confl… Approved/Enrolled      5532.
# ℹ 706 more rows

Make sure to save it to the time_spent object.

time_spent <- time_spent %>%  
  separate(course_id,
           c("subject", "semester", "section"))

time_spent

# A tibble: 716 × 8
   student_id subject semester section gender enrollment_reason                 
        <dbl> <chr>   <chr>    <chr>   <chr>  <chr>                             
 1      60186 AnPhA   S116     01      M      Course Unavailable at Local School
 2      66693 AnPhA   S116     01      M      Course Unavailable at Local School
 3      66811 AnPhA   S116     01      F      Course Unavailable at Local School
 4      66862 AnPhA   S116     01      F      Course Unavailable at Local School
 5      67508 AnPhA   S116     01      F      Scheduling Conflict               
 6      70532 AnPhA   S116     01      F      Learning Preference of the Student
 7      77010 AnPhA   S116     01      F      Learning Preference of the Student
 8      85249 AnPhA   S116     01      F      Course Unavailable at Local School
 9      85411 AnPhA   S116     01      F      Scheduling Conflict               
10      85583 AnPhA   S116     01      F      Scheduling Conflict               
# ℹ 706 more rows
# ℹ 2 more variables: enrollment_status <chr>, time_spent <dbl>

As you can see from the dataset, time_spent variable is not set as hour. Let’s change that. For this, we will use “mutate()” function.

# mutate minutes to hours on time spent and save as new variable.
time_spent <- time_spent %>% 
  mutate(time_spent_hours = time_spent / 60)
time_spent

# A tibble: 716 × 9
   student_id subject semester section gender enrollment_reason                 
        <dbl> <chr>   <chr>    <chr>   <chr>  <chr>                             
 1      60186 AnPhA   S116     01      M      Course Unavailable at Local School
 2      66693 AnPhA   S116     01      M      Course Unavailable at Local School
 3      66811 AnPhA   S116     01      F      Course Unavailable at Local School
 4      66862 AnPhA   S116     01      F      Course Unavailable at Local School
 5      67508 AnPhA   S116     01      F      Scheduling Conflict               
 6      70532 AnPhA   S116     01      F      Learning Preference of the Student
 7      77010 AnPhA   S116     01      F      Learning Preference of the Student
 8      85249 AnPhA   S116     01      F      Course Unavailable at Local School
 9      85411 AnPhA   S116     01      F      Scheduling Conflict               
10      85583 AnPhA   S116     01      F      Scheduling Conflict               
# ℹ 706 more rows
# ℹ 3 more variables: enrollment_status <chr>, time_spent <dbl>,
#   time_spent_hours <dbl>
…
